<svg width="16" height="21" viewBox="0 0 16 21" fill="none" xmlns="http://www.w3.org/2000/svg">
<path d="M7.29289 20.1358C7.68341 20.5263 8.31658 20.5263 8.7071 20.1358L15.0711 13.7719C15.4616 13.3813 15.4616 12.7482 15.0711 12.3576C14.6805 11.9671 14.0474 11.9671 13.6569 12.3576L8 18.0145L2.34314 12.3576C1.95262 11.9671 1.31945 11.9671 0.92893 12.3576C0.538406 12.7482 0.538406 13.3813 0.92893 13.7719L7.29289 20.1358ZM7 0.428711L7 19.4287L9 19.4287L9 0.428711L7 0.428711Z" fill="url(#paint0_linear)"/>
<defs>
<linearGradient id="paint0_linear" x1="8" y1="0.428711" x2="8" y2="19.4287" gradientUnits="userSpaceOnUse">
<stop stop-color="#2B5BA0"/>
<stop offset="0.4375" stop-color="#8C4191"/>
<stop offset="1" stop-color="#F90351"/>
</linearGradient>
</defs>
</svg>
