<svg width="98" height="59" viewBox="0 0 98 59" fill="none" xmlns="http://www.w3.org/2000/svg">
<g clip-path="url(#clip0)">
<path d="M4.36393 56.4363C4.36393 56.9392 4.07293 57.2035 3.28884 57.2035H1.99147C1.19526 57.2035 0.896179 56.9319 0.896179 56.2417V55.4672C0.896179 54.7514 1.19526 54.4834 1.99147 54.4834H3.28884C4.00826 54.4834 4.36393 54.733 4.36393 55.2506H4.05676C4.05676 54.9496 3.88297 54.755 3.29289 54.755H1.99551C1.39331 54.755 1.20335 54.9166 1.20335 55.4709V56.2454C1.20335 56.7814 1.40543 56.9355 1.99551 56.9355H3.29289C3.85872 56.9355 4.05676 56.7814 4.05676 56.44H4.36393V56.4363Z" fill="black"/>
<path d="M4.87726 54.5088H7.50434V54.7804H5.18442V55.6761H7.44372V55.9478H5.18442V56.9279H7.50434V57.1995H4.87726V54.5088Z" fill="black"/>
<path d="M9.61807 57.2032H9.3109V54.7804H7.87207V54.5088H11.0609V54.7804H9.62211V57.2032H9.61807Z" fill="black"/>
<path d="M11.7319 55.625H13.4294C14.1731 55.625 14.4681 55.8195 14.4681 56.4216C14.4681 56.9795 14.2458 57.2071 13.5426 57.2071H11.4288V54.5127H11.7359V55.625H11.7319ZM11.7319 56.9318H13.5466C13.9831 56.9318 14.1569 56.8437 14.1569 56.4289C14.1569 56.0251 13.9952 55.8966 13.5143 55.8966H11.7279V56.9318H11.7319Z" fill="black"/>
<path d="M19.6091 54.5088V57.2032H19.3019V54.7804H16.885V56.5645C16.885 57.0417 16.6223 57.1996 16.2101 57.1996H16.0848V56.9279H16.2464C16.3919 56.9279 16.5738 56.8545 16.5738 56.5645V54.5088H19.6091Z" fill="black"/>
<path d="M20.4012 56.994H20.4255L22.7697 54.5088H23.3638V57.2032H23.0566V54.718H22.9394L20.5912 57.2032H20.09V54.5088H20.3972V56.994H20.4012Z" fill="black"/>
<path d="M24.1802 55.6761H26.8113V54.5088H27.1185V57.2032H26.8113V55.9515H24.1802V57.2032H23.873V54.5088H24.1802V55.6761Z" fill="black"/>
<path d="M30.1497 54.5088V54.7804H27.9147V57.2032H27.6075V54.5088H30.1497Z" fill="black"/>
<path d="M30.6429 54.5088H32.8496C33.5569 54.5088 33.8843 54.7364 33.8843 55.1989C33.8843 55.6137 33.6539 55.7422 33.5125 55.7826C33.6095 55.8009 33.9692 55.9294 33.9692 56.4103C33.9692 57.0087 33.6095 57.2032 32.9264 57.2032H30.6429V54.5088ZM30.9501 55.6578H32.9668C33.367 55.6578 33.5731 55.5733 33.5731 55.232C33.5731 54.9383 33.4114 54.7804 32.9668 54.7804H30.9501V55.6578ZM30.9501 56.9316H33.0436C33.4438 56.9316 33.658 56.7847 33.658 56.4103C33.658 56.0542 33.4235 55.9294 33.0153 55.9294H30.946V56.9316H30.9501Z" fill="black"/>
<path d="M34.7532 56.994H34.7775L37.1216 54.5088H37.7158V57.2032H37.4086V54.718H37.2914L34.9432 57.2032H34.442V54.5088H34.7492V56.994H34.7532Z" fill="black"/>
<path d="M41.632 56.4363C41.632 56.9392 41.341 57.2035 40.557 57.2035H39.2597C38.4635 57.2035 38.1644 56.9319 38.1644 56.2417V55.4672C38.1644 54.7514 38.4635 54.4834 39.2597 54.4834H40.557C41.2764 54.4834 41.632 54.733 41.632 55.2506H41.3249C41.3249 54.9496 41.1511 54.755 40.5611 54.755H39.2637C38.6615 54.755 38.4715 54.9166 38.4715 55.4709V56.2454C38.4715 56.7814 38.6736 56.9355 39.2637 56.9355H40.5611C41.1268 56.9355 41.3249 56.7814 41.3249 56.44H41.632V56.4363Z" fill="black"/>
<path d="M43.7215 57.2032H43.4144V54.7804H41.9755V54.5088H45.1644V54.7804H43.7256V57.2032H43.7215Z" fill="black"/>
<path d="M45.8354 56.994H45.8597L48.2039 54.5088H48.798V57.2032H48.4908V54.718H48.3736L46.0254 57.2032H45.5242V54.5088H45.8314V56.994H45.8354Z" fill="black"/>
<path d="M49.6143 54.5088V55.3054C49.6143 55.6688 49.7881 55.8413 50.4105 55.8413H51.4007C51.9585 55.8413 52.0838 55.6688 52.1525 55.4155V54.5125H52.4596V57.2069H52.1525V55.8854C51.9989 56.0689 51.7281 56.1166 51.4007 56.1166H50.4105C49.6628 56.1166 49.3071 55.9221 49.3071 55.2026V54.5161H49.6143V54.5088Z" fill="black"/>
<path d="M52.9487 54.5088H55.5758V54.7804H53.2558V55.6761H55.5151V55.9478H53.2558V56.9279H55.5758V57.1995H52.9487V54.5088Z" fill="black"/>
<path d="M59.5205 56.4363C59.5205 56.9392 59.2295 57.2035 58.4454 57.2035H57.148C56.3518 57.2035 56.0527 56.9319 56.0527 56.2417V55.4672C56.0527 54.7514 56.3518 54.4834 57.148 54.4834H58.4454C59.1648 54.4834 59.5205 54.733 59.5205 55.2506H59.2133C59.2133 54.9496 59.0395 54.755 58.4495 54.755H57.1521C56.5499 54.755 56.3599 54.9166 56.3599 55.4709V56.2454C56.3599 56.7814 56.562 56.9355 57.1521 56.9355H58.4495C59.0153 56.9355 59.2133 56.7814 59.2133 56.44H59.5205V56.4363Z" fill="black"/>
<path d="M60.3409 55.6761H60.838L62.7376 54.5088H63.2752L61.1573 55.8083L63.2792 57.2032H62.7417L60.8502 55.9515H60.3409V57.2032H60.0338V54.5088H60.3409V55.6761Z" fill="black"/>
<path d="M63.9259 56.994H63.9501L66.2943 54.5088H66.8884V57.2032H66.5813V54.718H66.4641L64.1158 57.2032H63.6147V54.5088H63.9218V56.994H63.9259Z" fill="black"/>
<path d="M67.6523 54.5088L68.9012 55.6504L70.1501 54.5088H70.5583L69.1639 55.7753L70.7361 57.2032H70.3279L68.9012 55.9074L67.4745 57.2032H67.0623L68.6345 55.7753L67.2643 54.5088H67.6523Z" fill="black"/>
<path d="M75.3598 56.9316V54.5088H75.6669V56.9316H75.9135V57.9337H75.6225V57.2032H72.4174V54.5088H72.7246V56.9316H75.3598Z" fill="black"/>
<path d="M76.3944 54.5088H79.0215V54.7804H76.7016V55.6761H78.9609V55.9478H76.7016V56.9279H79.0215V57.1995H76.3944V54.5088Z" fill="black"/>
<path d="M79.8621 55.6761H82.4932V54.5088H82.8004V57.2032H82.4932V55.9515H79.8621V57.2032H79.5549V54.5088H79.8621V55.6761Z" fill="black"/>
<path d="M84.8658 57.2032H84.5586V54.7804H83.1198V54.5088H86.3086V54.7804H84.8698V57.2032H84.8658Z" fill="black"/>
<path d="M86.9836 57.2032H86.6764V54.5088H88.677C89.4126 54.5088 89.7198 54.7327 89.7198 55.3384C89.7198 55.9404 89.4247 56.0873 88.681 56.0873H86.9836V57.2032ZM86.9836 55.8156H88.7983C89.2348 55.8156 89.4085 55.7275 89.4085 55.3127C89.4085 54.9089 89.2469 54.7804 88.7659 54.7804H86.9795V55.8156H86.9836Z" fill="black"/>
<path d="M92.4965 57.2033H91.1991C90.3948 57.2033 90.0957 56.972 90.0957 56.2782V55.4413C90.0957 54.7511 90.3625 54.4795 91.1991 54.4795H92.4965C93.2159 54.4795 93.5635 54.6594 93.5635 55.4413V56.2782C93.5635 57.0491 93.2805 57.2033 92.4965 57.2033ZM92.4924 54.7511H91.195C90.6413 54.7511 90.4029 54.8943 90.4029 55.4192V56.2819C90.4029 56.7995 90.6171 56.9353 91.195 56.9353H92.4924C93.1148 56.9353 93.2563 56.8068 93.2563 56.2819V55.4192C93.2563 54.887 93.0825 54.7511 92.4924 54.7511Z" fill="black"/>
<path d="M94.0322 54.5088H96.2349C96.9422 54.5088 97.2696 54.7364 97.2696 55.1989C97.2696 55.6137 97.0392 55.7422 96.8978 55.7826C96.9948 55.8009 97.3545 55.9294 97.3545 56.4103C97.3545 57.0087 96.9948 57.2032 96.3117 57.2032H94.0322V54.5088ZM94.3394 55.6578H96.3562C96.7563 55.6578 96.9624 55.5733 96.9624 55.232C96.9624 54.9383 96.8008 54.7804 96.3562 54.7804H94.3394V55.6578ZM94.3394 56.9316H96.433C96.8331 56.9316 97.0473 56.7847 97.0473 56.4103C97.0473 56.0542 96.8129 55.9294 96.4047 55.9294H94.3354V56.9316H94.3394Z" fill="black"/>
<path d="M33.4841 23.8645H40.7753C41.0864 26.636 42.6384 28.4678 45.892 28.4678C49.4082 28.4678 51.4735 25.7918 51.4735 22.176C51.4735 19.2172 49.9215 16.1667 46.0456 16.1667C45.0634 16.1667 42.5293 16.2144 41.1349 18.5601L34.6198 18.2774L37.0529 0.56543H28.1127V32.3884H39.1829C36.0546 30.8723 33.7104 28.0824 33.4841 23.8645Z" fill="#24377B"/>
<path d="M57.5238 0.5625V5.40805H42.4282L41.1349 12.6874C42.4808 11.8431 44.1863 10.8556 47.7511 10.8556C52.7143 10.8556 58.9708 13.9539 58.9708 21.7031C58.9708 25.084 57.5966 30.0103 52.5405 32.3854H63.1498V0.5625H57.5238Z" fill="#24377B"/>
<path d="M6.04114 47.4061H18.7279V51.3854H0.75061V28.2734H6.04114V47.4061Z" fill="#2B5BA0"/>
<path d="M36.4951 46.3562C35.1977 50.4639 31.447 51.8332 28.2258 51.8332C22.9353 51.8332 18.833 49.5095 18.833 42.4761C18.833 40.4057 19.6373 33.8164 27.8742 33.8164C33.1648 33.8164 36.7053 36.4594 36.7053 42.3476V44.0362H23.9134C23.9134 45.343 24.2286 48.2394 28.2258 48.2394C29.6283 48.2394 31.0308 47.5713 31.4147 46.3599H36.4951V46.3562ZM31.6249 41.1032C31.346 38.3647 29.3818 37.5057 27.8055 37.5057C25.4573 37.5057 24.1963 38.8749 23.9134 41.1032H31.6249Z" fill="#2B5BA0"/>
<path d="M41.5795 34.2607L45.5727 46.8996H45.6414L49.776 34.2607H55.0665L48.2685 51.3854H43.0466L36.2809 34.2607H41.5795Z" fill="#2B5BA0"/>
<path d="M72.3164 46.3562C71.019 50.4639 67.2683 51.8332 64.0471 51.8332C58.7566 51.8332 54.6543 49.5095 54.6543 42.4761C54.6543 40.4057 55.4626 33.8164 63.6955 33.8164C68.986 33.8164 72.5265 36.4594 72.5265 42.3476V44.0362H59.7347C59.7347 45.343 60.0499 48.2394 64.0471 48.2394C65.4496 48.2394 66.852 47.5713 67.236 46.3599H72.3164V46.3562ZM67.4462 41.1032C67.1673 38.3647 65.203 37.5057 63.6268 37.5057C61.2786 37.5057 60.0176 38.8749 59.7347 41.1032H67.4462Z" fill="#2B5BA0"/>
<path d="M78.6982 51.3854H73.7552V28.2734H78.6982V51.3854Z" fill="#2B5BA0"/>
<path d="M91.8053 39.4811C91.5952 38.3982 91.1748 37.2199 88.475 37.2199C85.7752 37.2199 85.4276 38.1743 85.4276 38.9085C85.4276 41.6139 97.205 39.639 97.205 45.9419C97.205 50.938 91.9145 51.83 88.9681 51.83C84.692 51.83 79.9269 50.4607 79.9269 45.9088H85.0073C85.0073 47.3405 85.9894 48.4234 89.1095 48.4234C91.6679 48.4234 92.262 47.2781 92.262 46.6394C92.262 43.7761 80.5897 45.9382 80.5897 39.5399C80.5897 37.0253 82.3074 33.8096 88.1961 33.8096C91.874 33.8096 96.2552 34.6355 96.6432 39.4775H91.8053V39.4811Z" fill="#2B5BA0"/>
</g>
<defs>
<clipPath id="clip0">
<rect width="97" height="58" fill="white" transform="translate(0.5 0.216797)"/>
</clipPath>
</defs>
</svg>
